[
 {
  "_assign": null, 
  "_comments": null, 
  "_liked_by": null, 
  "_user_tags": null, 
  "default_value": null, 
  "doc_type": "Quotation", 
  "docstatus": 0, 
  "doctype": "Property Setter", 
  "doctype_or_field": "DocField", 
  "field_name": "base_rounded_total", 
  "modified": "2017-08-03 12:35:51.350538", 
  "name": "Quotation-base_rounded_total-hidden", 
  "property": "hidden", 
  "property_type": "Check", 
  "value": "0"
 }, 
 {
  "_assign": null, 
  "_comments": null, 
  "_liked_by": null, 
  "_user_tags": null, 
  "default_value": null, 
  "doc_type": "Quotation", 
  "docstatus": 0, 
  "doctype": "Property Setter", 
  "doctype_or_field": "DocField", 
  "field_name": "base_rounded_total", 
  "modified": "2017-08-03 12:35:51.405128", 
  "name": "Quotation-base_rounded_total-print_hide", 
  "property": "print_hide", 
  "property_type": "Check", 
  "value": "1"
 }, 
 {
  "_assign": null, 
  "_comments": null, 
  "_liked_by": null, 
  "_user_tags": null, 
  "default_value": null, 
  "doc_type": "Quotation", 
  "docstatus": 0, 
  "doctype": "Property Setter", 
  "doctype_or_field": "DocField", 
  "field_name": "rounded_total", 
  "modified": "2017-08-03 12:35:51.454855", 
  "name": "Quotation-rounded_total-hidden", 
  "property": "hidden", 
  "property_type": "Check", 
  "value": "0"
 }, 
 {
  "_assign": null, 
  "_comments": null, 
  "_liked_by": null, 
  "_user_tags": null, 
  "default_value": null, 
  "doc_type": "Quotation", 
  "docstatus": 0, 
  "doctype": "Property Setter", 
  "doctype_or_field": "DocField", 
  "field_name": "rounded_total", 
  "modified": "2017-08-03 12:35:51.507697", 
  "name": "Quotation-rounded_total-print_hide", 
  "property": "print_hide", 
  "property_type": "Check", 
  "value": "0"
 }, 
 {
  "_assign": null, 
  "_comments": null, 
  "_liked_by": null, 
  "_user_tags": null, 
  "default_value": null, 
  "doc_type": "Sales Order", 
  "docstatus": 0, 
  "doctype": "Property Setter", 
  "doctype_or_field": "DocField", 
  "field_name": "base_rounded_total", 
  "modified": "2017-08-03 12:35:51.751494", 
  "name": "Sales Order-base_rounded_total-hidden", 
  "property": "hidden", 
  "property_type": "Check", 
  "value": "0"
 }, 
 {
  "_assign": null, 
  "_comments": null, 
  "_liked_by": null, 
  "_user_tags": null, 
  "default_value": null, 
  "doc_type": "Sales Order", 
  "docstatus": 0, 
  "doctype": "Property Setter", 
  "doctype_or_field": "DocField", 
  "field_name": "base_rounded_total", 
  "modified": "2017-08-03 12:35:51.817066", 
  "name": "Sales Order-base_rounded_total-print_hide", 
  "property": "print_hide", 
  "property_type": "Check", 
  "value": "1"
 }, 
 {
  "_assign": null, 
  "_comments": null, 
  "_liked_by": null, 
  "_user_tags": null, 
  "default_value": null, 
  "doc_type": "Sales Order", 
  "docstatus": 0, 
  "doctype": "Property Setter", 
  "doctype_or_field": "DocField", 
  "field_name": "rounded_total", 
  "modified": "2017-08-03 12:35:51.884913", 
  "name": "Sales Order-rounded_total-hidden", 
  "property": "hidden", 
  "property_type": "Check", 
  "value": "0"
 }, 
 {
  "_assign": null, 
  "_comments": null, 
  "_liked_by": null, 
  "_user_tags": null, 
  "default_value": null, 
  "doc_type": "Sales Order", 
  "docstatus": 0, 
  "doctype": "Property Setter", 
  "doctype_or_field": "DocField", 
  "field_name": "rounded_total", 
  "modified": "2017-08-03 12:35:51.963557", 
  "name": "Sales Order-rounded_total-print_hide", 
  "property": "print_hide", 
  "property_type": "Check", 
  "value": "0"
 }, 
 {
  "_assign": null, 
  "_comments": null, 
  "_liked_by": null, 
  "_user_tags": null, 
  "default_value": null, 
  "doc_type": "Sales Invoice", 
  "docstatus": 0, 
  "doctype": "Property Setter", 
  "doctype_or_field": "DocField", 
  "field_name": "base_rounded_total", 
  "modified": "2017-08-03 12:35:52.016878", 
  "name": "Sales Invoice-base_rounded_total-hidden", 
  "property": "hidden", 
  "property_type": "Check", 
  "value": "0"
 }, 
 {
  "_assign": null, 
  "_comments": null, 
  "_liked_by": null, 
  "_user_tags": null, 
  "default_value": null, 
  "doc_type": "Sales Invoice", 
  "docstatus": 0, 
  "doctype": "Property Setter", 
  "doctype_or_field": "DocField", 
  "field_name": "base_rounded_total", 
  "modified": "2017-08-03 12:35:52.092555", 
  "name": "Sales Invoice-base_rounded_total-print_hide", 
  "property": "print_hide", 
  "property_type": "Check", 
  "value": "1"
 }, 
 {
  "_assign": null, 
  "_comments": null, 
  "_liked_by": null, 
  "_user_tags": null, 
  "default_value": null, 
  "doc_type": "Sales Invoice", 
  "docstatus": 0, 
  "doctype": "Property Setter", 
  "doctype_or_field": "DocField", 
  "field_name": "rounded_total", 
  "modified": "2017-08-03 12:35:52.165569", 
  "name": "Sales Invoice-rounded_total-hidden", 
  "property": "hidden", 
  "property_type": "Check", 
  "value": "0"
 }, 
 {
  "_assign": null, 
  "_comments": null, 
  "_liked_by": null, 
  "_user_tags": null, 
  "default_value": null, 
  "doc_type": "Sales Invoice", 
  "docstatus": 0, 
  "doctype": "Property Setter", 
  "doctype_or_field": "DocField", 
  "field_name": "rounded_total", 
  "modified": "2017-08-03 12:35:52.243360", 
  "name": "Sales Invoice-rounded_total-print_hide", 
  "property": "print_hide", 
  "property_type": "Check", 
  "value": "0"
 }, 
 {
  "_assign": null, 
  "_comments": null, 
  "_liked_by": null, 
  "_user_tags": null, 
  "default_value": null, 
  "doc_type": "Delivery Note", 
  "docstatus": 0, 
  "doctype": "Property Setter", 
  "doctype_or_field": "DocField", 
  "field_name": "base_rounded_total", 
  "modified": "2017-08-03 12:35:52.321576", 
  "name": "Delivery Note-base_rounded_total-hidden", 
  "property": "hidden", 
  "property_type": "Check", 
  "value": "0"
 }, 
 {
  "_assign": null, 
  "_comments": null, 
  "_liked_by": null, 
  "_user_tags": null, 
  "default_value": null, 
  "doc_type": "Delivery Note", 
  "docstatus": 0, 
  "doctype": "Property Setter", 
  "doctype_or_field": "DocField", 
  "field_name": "base_rounded_total", 
  "modified": "2017-08-03 12:35:52.387655", 
  "name": "Delivery Note-base_rounded_total-print_hide", 
  "property": "print_hide", 
  "property_type": "Check", 
  "value": "1"
 }, 
 {
  "_assign": null, 
  "_comments": null, 
  "_liked_by": null, 
  "_user_tags": null, 
  "default_value": null, 
  "doc_type": "Delivery Note", 
  "docstatus": 0, 
  "doctype": "Property Setter", 
  "doctype_or_field": "DocField", 
  "field_name": "rounded_total", 
  "modified": "2017-08-03 12:35:52.449059", 
  "name": "Delivery Note-rounded_total-hidden", 
  "property": "hidden", 
  "property_type": "Check", 
  "value": "0"
 }, 
 {
  "_assign": null, 
  "_comments": null, 
  "_liked_by": null, 
  "_user_tags": null, 
  "default_value": null, 
  "doc_type": "Delivery Note", 
  "docstatus": 0, 
  "doctype": "Property Setter", 
  "doctype_or_field": "DocField", 
  "field_name": "rounded_total", 
  "modified": "2017-08-03 12:35:52.515345", 
  "name": "Delivery Note-rounded_total-print_hide", 
  "property": "print_hide", 
  "property_type": "Check", 
  "value": "0"
 }, 
 {
  "_assign": null, 
  "_comments": null, 
  "_liked_by": null, 
  "_user_tags": null, 
  "default_value": null, 
  "doc_type": "Quotation", 
  "docstatus": 0, 
  "doctype": "Property Setter", 
  "doctype_or_field": "DocField", 
  "field_name": "in_words", 
  "modified": "2017-08-03 12:35:52.568867", 
  "name": "Quotation-in_words-hidden", 
  "property": "hidden", 
  "property_type": "Check", 
  "value": "0"
 }, 
 {
  "_assign": null, 
  "_comments": null, 
  "_liked_by": null, 
  "_user_tags": null, 
  "default_value": null, 
  "doc_type": "Quotation", 
  "docstatus": 0, 
  "doctype": "Property Setter", 
  "doctype_or_field": "DocField", 
  "field_name": "in_words", 
  "modified": "2017-08-03 12:35:52.617768", 
  "name": "Quotation-in_words-print_hide", 
  "property": "print_hide", 
  "property_type": "Check", 
  "value": "0"
 }, 
 {
  "_assign": null, 
  "_comments": null, 
  "_liked_by": null, 
  "_user_tags": null, 
  "default_value": null, 
  "doc_type": "Sales Order", 
  "docstatus": 0, 
  "doctype": "Property Setter", 
  "doctype_or_field": "DocField", 
  "field_name": "in_words", 
  "modified": "2017-08-03 12:35:52.667604", 
  "name": "Sales Order-in_words-hidden", 
  "property": "hidden", 
  "property_type": "Check", 
  "value": "0"
 }, 
 {
  "_assign": null, 
  "_comments": null, 
  "_liked_by": null, 
  "_user_tags": null, 
  "default_value": null, 
  "doc_type": "Sales Order", 
  "docstatus": 0, 
  "doctype": "Property Setter", 
  "doctype_or_field": "DocField", 
  "field_name": "in_words", 
  "modified": "2017-08-03 12:35:52.750477", 
  "name": "Sales Order-in_words-print_hide", 
  "property": "print_hide", 
  "property_type": "Check", 
  "value": "0"
 }, 
 {
  "_assign": null, 
  "_comments": null, 
  "_liked_by": null, 
  "_user_tags": null, 
  "default_value": null, 
  "doc_type": "Sales Invoice", 
  "docstatus": 0, 
  "doctype": "Property Setter", 
  "doctype_or_field": "DocField", 
  "field_name": "in_words", 
  "modified": "2017-08-03 12:35:52.824731", 
  "name": "Sales Invoice-in_words-hidden", 
  "property": "hidden", 
  "property_type": "Check", 
  "value": "0"
 }, 
 {
  "_assign": null, 
  "_comments": null, 
  "_liked_by": null, 
  "_user_tags": null, 
  "default_value": null, 
  "doc_type": "Sales Invoice", 
  "docstatus": 0, 
  "doctype": "Property Setter", 
  "doctype_or_field": "DocField", 
  "field_name": "in_words", 
  "modified": "2017-08-03 12:35:52.902006", 
  "name": "Sales Invoice-in_words-print_hide", 
  "property": "print_hide", 
  "property_type": "Check", 
  "value": "0"
 }, 
 {
  "_assign": null, 
  "_comments": null, 
  "_liked_by": null, 
  "_user_tags": null, 
  "default_value": null, 
  "doc_type": "Delivery Note", 
  "docstatus": 0, 
  "doctype": "Property Setter", 
  "doctype_or_field": "DocField", 
  "field_name": "in_words", 
  "modified": "2017-08-03 12:35:52.993997", 
  "name": "Delivery Note-in_words-hidden", 
  "property": "hidden", 
  "property_type": "Check", 
  "value": "0"
 }, 
 {
  "_assign": null, 
  "_comments": null, 
  "_liked_by": null, 
  "_user_tags": null, 
  "default_value": null, 
  "doc_type": "Delivery Note", 
  "docstatus": 0, 
  "doctype": "Property Setter", 
  "doctype_or_field": "DocField", 
  "field_name": "in_words", 
  "modified": "2017-08-03 12:35:53.047907", 
  "name": "Delivery Note-in_words-print_hide", 
  "property": "print_hide", 
  "property_type": "Check", 
  "value": "0"
 }, 
 {
  "_assign": null, 
  "_comments": null, 
  "_liked_by": null, 
  "_user_tags": null, 
  "default_value": null, 
  "doc_type": "Supplier Quotation", 
  "docstatus": 0, 
  "doctype": "Property Setter", 
  "doctype_or_field": "DocField", 
  "field_name": "in_words", 
  "modified": "2017-08-03 12:35:53.100170", 
  "name": "Supplier Quotation-in_words-hidden", 
  "property": "hidden", 
  "property_type": "Check", 
  "value": "0"
 }, 
 {
  "_assign": null, 
  "_comments": null, 
  "_liked_by": null, 
  "_user_tags": null, 
  "default_value": null, 
  "doc_type": "Supplier Quotation", 
  "docstatus": 0, 
  "doctype": "Property Setter", 
  "doctype_or_field": "DocField", 
  "field_name": "in_words", 
  "modified": "2017-08-03 12:35:53.138309", 
  "name": "Supplier Quotation-in_words-print_hide", 
  "property": "print_hide", 
  "property_type": "Check", 
  "value": "0"
 }, 
 {
  "_assign": null, 
  "_comments": null, 
  "_liked_by": null, 
  "_user_tags": null, 
  "default_value": null, 
  "doc_type": "Purchase Order", 
  "docstatus": 0, 
  "doctype": "Property Setter", 
  "doctype_or_field": "DocField", 
  "field_name": "in_words", 
  "modified": "2017-08-03 12:35:53.178743", 
  "name": "Purchase Order-in_words-hidden", 
  "property": "hidden", 
  "property_type": "Check", 
  "value": "0"
 }, 
 {
  "_assign": null, 
  "_comments": null, 
  "_liked_by": null, 
  "_user_tags": null, 
  "default_value": null, 
  "doc_type": "Purchase Order", 
  "docstatus": 0, 
  "doctype": "Property Setter", 
  "doctype_or_field": "DocField", 
  "field_name": "in_words", 
  "modified": "2017-08-03 12:35:53.234023", 
  "name": "Purchase Order-in_words-print_hide", 
  "property": "print_hide", 
  "property_type": "Check", 
  "value": "0"
 }, 
 {
  "_assign": null, 
  "_comments": null, 
  "_liked_by": null, 
  "_user_tags": null, 
  "default_value": null, 
  "doc_type": "Purchase Invoice", 
  "docstatus": 0, 
  "doctype": "Property Setter", 
  "doctype_or_field": "DocField", 
  "field_name": "in_words", 
  "modified": "2017-08-03 12:35:53.296861", 
  "name": "Purchase Invoice-in_words-hidden", 
  "property": "hidden", 
  "property_type": "Check", 
  "value": "0"
 }, 
 {
  "_assign": null, 
  "_comments": null, 
  "_liked_by": null, 
  "_user_tags": null, 
  "default_value": null, 
  "doc_type": "Purchase Invoice", 
  "docstatus": 0, 
  "doctype": "Property Setter", 
  "doctype_or_field": "DocField", 
  "field_name": "in_words", 
  "modified": "2017-08-03 12:35:53.369129", 
  "name": "Purchase Invoice-in_words-print_hide", 
  "property": "print_hide", 
  "property_type": "Check", 
  "value": "0"
 }, 
 {
  "_assign": null, 
  "_comments": null, 
  "_liked_by": null, 
  "_user_tags": null, 
  "default_value": null, 
  "doc_type": "Purchase Receipt", 
  "docstatus": 0, 
  "doctype": "Property Setter", 
  "doctype_or_field": "DocField", 
  "field_name": "in_words", 
  "modified": "2017-08-03 12:35:53.439657", 
  "name": "Purchase Receipt-in_words-hidden", 
  "property": "hidden", 
  "property_type": "Check", 
  "value": "0"
 }, 
 {
  "_assign": null, 
  "_comments": null, 
  "_liked_by": null, 
  "_user_tags": null, 
  "default_value": null, 
  "doc_type": "Purchase Receipt", 
  "docstatus": 0, 
  "doctype": "Property Setter", 
  "doctype_or_field": "DocField", 
  "field_name": "in_words", 
  "modified": "2017-08-03 12:35:53.493842", 
  "name": "Purchase Receipt-in_words-print_hide", 
  "property": "print_hide", 
  "property_type": "Check", 
  "value": "0"
 }, 
 {
  "_assign": null, 
  "_comments": null, 
  "_liked_by": null, 
  "_user_tags": null, 
  "default_value": null, 
  "doc_type": "Customer", 
  "docstatus": 0, 
  "doctype": "Property Setter", 
  "doctype_or_field": "DocField", 
  "field_name": "naming_series", 
  "modified": "2017-08-03 12:35:54.454059", 
  "name": "Customer-naming_series-reqd", 
  "property": "reqd", 
  "property_type": "Check", 
  "value": "0"
 }, 
 {
  "_assign": null, 
  "_comments": null, 
  "_liked_by": null, 
  "_user_tags": null, 
  "default_value": null, 
  "doc_type": "Customer", 
  "docstatus": 0, 
  "doctype": "Property Setter", 
  "doctype_or_field": "DocField", 
  "field_name": "naming_series", 
  "modified": "2017-08-03 12:35:54.492657", 
  "name": "Customer-naming_series-hidden", 
  "property": "hidden", 
  "property_type": "Check", 
  "value": "1"
 }, 
 {
  "_assign": null, 
  "_comments": null, 
  "_liked_by": null, 
  "_user_tags": null, 
  "default_value": null, 
  "doc_type": "Sales Order", 
  "docstatus": 0, 
  "doctype": "Property Setter", 
  "doctype_or_field": "DocField", 
  "field_name": "tax_id", 
  "modified": "2017-08-03 12:35:54.535705", 
  "name": "Sales Order-tax_id-hidden", 
  "property": "hidden", 
  "property_type": "Check", 
  "value": "0"
 }, 
 {
  "_assign": null, 
  "_comments": null, 
  "_liked_by": null, 
  "_user_tags": null, 
  "default_value": null, 
  "doc_type": "Sales Order", 
  "docstatus": 0, 
  "doctype": "Property Setter", 
  "doctype_or_field": "DocField", 
  "field_name": "tax_id", 
  "modified": "2017-08-03 12:35:54.609501", 
  "name": "Sales Order-tax_id-print_hide", 
  "property": "print_hide", 
  "property_type": "Check", 
  "value": "0"
 }, 
 {
  "_assign": null, 
  "_comments": null, 
  "_liked_by": null, 
  "_user_tags": null, 
  "default_value": null, 
  "doc_type": "Sales Invoice", 
  "docstatus": 0, 
  "doctype": "Property Setter", 
  "doctype_or_field": "DocField", 
  "field_name": "tax_id", 
  "modified": "2017-08-03 12:35:54.674817", 
  "name": "Sales Invoice-tax_id-hidden", 
  "property": "hidden", 
  "property_type": "Check", 
  "value": "0"
 }, 
 {
  "_assign": null, 
  "_comments": null, 
  "_liked_by": null, 
  "_user_tags": null, 
  "default_value": null, 
  "doc_type": "Sales Invoice", 
  "docstatus": 0, 
  "doctype": "Property Setter", 
  "doctype_or_field": "DocField", 
  "field_name": "tax_id", 
  "modified": "2017-08-03 12:35:54.760341", 
  "name": "Sales Invoice-tax_id-print_hide", 
  "property": "print_hide", 
  "property_type": "Check", 
  "value": "0"
 }, 
 {
  "_assign": null, 
  "_comments": null, 
  "_liked_by": null, 
  "_user_tags": null, 
  "default_value": null, 
  "doc_type": "Delivery Note", 
  "docstatus": 0, 
  "doctype": "Property Setter", 
  "doctype_or_field": "DocField", 
  "field_name": "tax_id", 
  "modified": "2017-08-03 12:35:54.847138", 
  "name": "Delivery Note-tax_id-hidden", 
  "property": "hidden", 
  "property_type": "Check", 
  "value": "0"
 }, 
 {
  "_assign": null, 
  "_comments": null, 
  "_liked_by": null, 
  "_user_tags": null, 
  "default_value": null, 
  "doc_type": "Delivery Note", 
  "docstatus": 0, 
  "doctype": "Property Setter", 
  "doctype_or_field": "DocField", 
  "field_name": "tax_id", 
  "modified": "2017-08-03 12:35:54.911056", 
  "name": "Delivery Note-tax_id-print_hide", 
  "property": "print_hide", 
  "property_type": "Check", 
  "value": "0"
 }, 
 {
  "_assign": null, 
  "_comments": null, 
  "_liked_by": null, 
  "_user_tags": null, 
  "default_value": null, 
  "doc_type": "Supplier", 
  "docstatus": 0, 
  "doctype": "Property Setter", 
  "doctype_or_field": "DocField", 
  "field_name": "naming_series", 
  "modified": "2017-08-03 12:35:55.081607", 
  "name": "Supplier-naming_series-reqd", 
  "property": "reqd", 
  "property_type": "Check", 
  "value": "0"
 }, 
 {
  "_assign": null, 
  "_comments": null, 
  "_liked_by": null, 
  "_user_tags": null, 
  "default_value": null, 
  "doc_type": "Supplier", 
  "docstatus": 0, 
  "doctype": "Property Setter", 
  "doctype_or_field": "DocField", 
  "field_name": "naming_series", 
  "modified": "2017-08-03 12:35:55.105565", 
  "name": "Supplier-naming_series-hidden", 
  "property": "hidden", 
  "property_type": "Check", 
  "value": "1"
 }, 
 {
  "_assign": null, 
  "_comments": null, 
  "_liked_by": null, 
  "_user_tags": null, 
  "default_value": null, 
  "doc_type": "Employee", 
  "docstatus": 0, 
  "doctype": "Property Setter", 
  "doctype_or_field": "DocField", 
  "field_name": "naming_series", 
  "modified": "2017-08-03 12:35:55.229914", 
  "name": "Employee-naming_series-hidden", 
  "property": "hidden", 
  "property_type": "Check", 
  "value": "0"
 }, 
 {
  "_assign": null, 
  "_comments": null, 
  "_liked_by": null, 
  "_user_tags": null, 
  "default_value": null, 
  "doc_type": "Employee", 
  "docstatus": 0, 
  "doctype": "Property Setter", 
  "doctype_or_field": "DocField", 
  "field_name": "naming_series", 
  "modified": "2017-08-03 12:35:55.279318", 
  "name": "Employee-naming_series-reqd", 
  "property": "reqd", 
  "property_type": "Check", 
  "value": "1"
 }, 
 {
  "_assign": null, 
  "_comments": null, 
  "_liked_by": null, 
  "_user_tags": null, 
  "default_value": null, 
  "doc_type": "Employee", 
  "docstatus": 0, 
  "doctype": "Property Setter", 
  "doctype_or_field": "DocField", 
  "field_name": "employee_number", 
  "modified": "2017-08-03 12:35:55.373188", 
  "name": "Employee-employee_number-reqd", 
  "property": "reqd", 
  "property_type": "Check", 
  "value": "0"
 }, 
 {
  "_assign": null, 
  "_comments": null, 
  "_liked_by": null, 
  "_user_tags": null, 
  "default_value": null, 
  "doc_type": "Employee", 
  "docstatus": 0, 
  "doctype": "Property Setter", 
  "doctype_or_field": "DocField", 
  "field_name": "employee_number", 
  "modified": "2017-08-03 12:35:55.418261", 
  "name": "Employee-employee_number-hidden", 
  "property": "hidden", 
  "property_type": "Check", 
  "value": "1"
 }, 
 {
  "_assign": null, 
  "_comments": null, 
  "_liked_by": null, 
  "_user_tags": null, 
  "default_value": null, 
  "doc_type": "Item", 
  "docstatus": 0, 
  "doctype": "Property Setter", 
  "doctype_or_field": "DocField", 
  "field_name": "is_stock_item", 
  "modified": "2017-08-03 12:35:57.256705", 
  "name": "Item-is_stock_item-default", 
  "property": "default", 
  "property_type": "Small Text", 
  "value": "0"
 }, 
 {
  "_assign": null, 
  "_comments": null, 
  "_liked_by": null, 
  "_user_tags": null, 
  "default_value": null, 
  "doc_type": "Item", 
  "docstatus": 0, 
  "doctype": "Property Setter", 
  "doctype_or_field": "DocField", 
  "field_name": "naming_series", 
  "modified": "2017-08-03 12:35:57.557155", 
  "name": "Item-naming_series-reqd", 
  "property": "reqd", 
  "property_type": "Check", 
  "value": "0"
 }, 
 {
  "_assign": null, 
  "_comments": null, 
  "_liked_by": null, 
  "_user_tags": null, 
  "default_value": null, 
  "doc_type": "Item", 
  "docstatus": 0, 
  "doctype": "Property Setter", 
  "doctype_or_field": "DocField", 
  "field_name": "naming_series", 
  "modified": "2017-08-03 12:35:57.626666", 
  "name": "Item-naming_series-hidden", 
  "property": "hidden", 
  "property_type": "Check", 
  "value": "1"
 }, 
 {
  "_assign": null, 
  "_comments": null, 
  "_liked_by": null, 
  "_user_tags": null, 
  "default_value": null, 
  "doc_type": "Item", 
  "docstatus": 0, 
  "doctype": "Property Setter", 
  "doctype_or_field": "DocField", 
  "field_name": "item_code", 
  "modified": "2017-08-03 12:35:57.686547", 
  "name": "Item-item_code-hidden", 
  "property": "hidden", 
  "property_type": "Check", 
  "value": "0"
 }, 
 {
  "_assign": null, 
  "_comments": null, 
  "_liked_by": null, 
  "_user_tags": null, 
  "default_value": null, 
  "doc_type": "Item", 
  "docstatus": 0, 
  "doctype": "Property Setter", 
  "doctype_or_field": "DocField", 
  "field_name": "item_code", 
  "modified": "2017-08-03 12:35:57.750623", 
  "name": "Item-item_code-reqd", 
  "property": "reqd", 
  "property_type": "Check", 
  "value": "1"
 }, 
 {
  "_assign": null, 
  "_comments": null, 
  "_liked_by": null, 
  "_user_tags": null, 
  "default_value": null, 
  "doc_type": "Purchase Receipt Item", 
  "docstatus": 0, 
  "doctype": "Property Setter", 
  "doctype_or_field": "DocField", 
  "field_name": "barcode", 
  "modified": "2017-08-03 12:35:57.982319", 
  "name": "Purchase Receipt Item-barcode-hidden", 
  "property": "hidden", 
  "property_type": "Check", 
  "value": "1"
 }, 
 {
  "_assign": null, 
  "_comments": null, 
  "_liked_by": null, 
  "_user_tags": null, 
  "default_value": null, 
  "doc_type": "Stock Entry Detail", 
  "docstatus": 0, 
  "doctype": "Property Setter", 
  "doctype_or_field": "DocField", 
  "field_name": "barcode", 
  "modified": "2017-08-03 12:35:58.011819", 
  "name": "Stock Entry Detail-barcode-hidden", 
  "property": "hidden", 
  "property_type": "Check", 
  "value": "1"
 }, 
 {
  "_assign": null, 
  "_comments": null, 
  "_liked_by": null, 
  "_user_tags": null, 
  "default_value": null, 
  "doc_type": "Item", 
  "docstatus": 0, 
  "doctype": "Property Setter", 
  "doctype_or_field": "DocField", 
  "field_name": "barcode", 
  "modified": "2017-08-03 12:35:58.032662", 
  "name": "Item-barcode-hidden", 
  "property": "hidden", 
  "property_type": "Check", 
  "value": "1"
 }, 
 {
  "_assign": null, 
  "_comments": null, 
  "_liked_by": null, 
  "_user_tags": null, 
  "default_value": null, 
  "doc_type": "Stock Reconciliation Item", 
  "docstatus": 0, 
  "doctype": "Property Setter", 
  "doctype_or_field": "DocField", 
  "field_name": "barcode", 
  "modified": "2017-08-03 12:35:58.104294", 
  "name": "Stock Reconciliation Item-barcode-hidden", 
  "property": "hidden", 
  "property_type": "Check", 
  "value": "1"
 }, 
 {
  "_assign": null, 
  "_comments": null, 
  "_liked_by": null, 
  "_user_tags": null, 
  "default_value": null, 
  "doc_type": "Sales Invoice Item", 
  "docstatus": 0, 
  "doctype": "Property Setter", 
  "doctype_or_field": "DocField", 
  "field_name": "barcode", 
  "modified": "2017-08-03 12:35:58.120193", 
  "name": "Sales Invoice Item-barcode-hidden", 
  "property": "hidden", 
  "property_type": "Check", 
  "value": "1"
 }, 
 {
  "_assign": null, 
  "_comments": null, 
  "_liked_by": null, 
  "_user_tags": null, 
  "default_value": null, 
  "doc_type": "Delivery Note Item", 
  "docstatus": 0, 
  "doctype": "Property Setter", 
  "doctype_or_field": "DocField", 
  "field_name": "barcode", 
  "modified": "2017-08-03 12:35:58.156111", 
  "name": "Delivery Note Item-barcode-hidden", 
  "property": "hidden", 
  "property_type": "Check", 
  "value": "1"
 }, 
 {
  "_assign": null, 
  "_comments": null, 
  "_liked_by": null, 
  "_user_tags": null, 
  "default_value": null, 
  "doc_type": "Address", 
  "docstatus": 0, 
  "doctype": "Property Setter", 
  "doctype_or_field": "DocField", 
  "field_name": "city", 
  "modified": "2017-08-04 11:18:33.090434", 
  "name": "Address-city-reqd", 
  "property": "reqd", 
  "property_type": "Check", 
  "value": "0"
 }, 
 {
  "_assign": null, 
  "_comments": null, 
  "_liked_by": null, 
  "_user_tags": null, 
  "default_value": null, 
  "doc_type": "Address", 
  "docstatus": 0, 
  "doctype": "Property Setter", 
  "doctype_or_field": "DocField", 
  "field_name": "city", 
  "modified": "2017-08-04 11:18:33.094647", 
  "name": "Address-city-hidden", 
  "property": "hidden", 
  "property_type": "Check", 
  "value": "1"
 }, 
 {
  "_assign": null, 
  "_comments": null, 
  "_liked_by": null, 
  "_user_tags": null, 
  "default_value": null, 
  "doc_type": "Address", 
  "docstatus": 0, 
  "doctype": "Property Setter", 
  "doctype_or_field": "DocField", 
  "field_name": "county", 
  "modified": "2017-08-04 11:18:33.118831", 
  "name": "Address-county-hidden", 
  "property": "hidden", 
  "property_type": "Check", 
  "value": "1"
 }, 
 {
  "_assign": null, 
  "_comments": null, 
  "_liked_by": null, 
  "_user_tags": null, 
  "default_value": null, 
  "doc_type": "Address", 
  "docstatus": 0, 
  "doctype": "Property Setter", 
  "doctype_or_field": "DocField", 
  "field_name": "state", 
  "modified": "2017-08-04 11:18:33.128592", 
  "name": "Address-state-hidden", 
  "property": "hidden", 
  "property_type": "Check", 
  "value": "1"
 }, 
 {
  "_assign": null, 
  "_comments": null, 
  "_liked_by": null, 
  "_user_tags": null, 
  "default_value": null, 
  "doc_type": "Address", 
  "docstatus": 0, 
  "doctype": "Property Setter", 
  "doctype_or_field": "DocType", 
  "field_name": null, 
  "modified": "2017-08-04 11:18:53.165147", 
  "name": "Address-read_only_onload", 
  "property": "read_only_onload", 
  "property_type": "Check", 
  "value": null
 }, 
 {
  "_assign": null, 
  "_comments": null, 
  "_liked_by": null, 
  "_user_tags": null, 
  "default_value": null, 
  "doc_type": "Employee", 
  "docstatus": 0, 
  "doctype": "Property Setter", 
  "doctype_or_field": "DocType", 
  "field_name": null, 
  "modified": "2017-08-04 12:13:07.378352", 
  "name": "Employee-read_only_onload", 
  "property": "read_only_onload", 
  "property_type": "Check", 
  "value": null
 }, 
 {
  "_assign": null, 
  "_comments": null, 
  "_liked_by": null, 
  "_user_tags": null, 
  "default_value": null, 
  "doc_type": "Employee", 
  "docstatus": 0, 
  "doctype": "Property Setter", 
  "doctype_or_field": "DocField", 
  "field_name": "branch", 
  "modified": "2017-08-04 12:13:07.451951", 
  "name": "Employee-branch-hidden", 
  "property": "hidden", 
  "property_type": "Check", 
  "value": "1"
 }, 
 {
  "_assign": null, 
  "_comments": null, 
  "_liked_by": null, 
  "_user_tags": null, 
  "default_value": null, 
  "doc_type": "Lead", 
  "docstatus": 0, 
  "doctype": "Property Setter", 
  "doctype_or_field": "DocType", 
  "field_name": null, 
  "modified": "2017-08-04 13:13:48.312533", 
  "name": "Lead-read_only_onload", 
  "property": "read_only_onload", 
  "property_type": "Check", 
  "value": null
 }, 
 {
  "_assign": null, 
  "_comments": null, 
  "_liked_by": null, 
  "_user_tags": null, 
  "default_value": null, 
  "doc_type": "Lead", 
  "docstatus": 0, 
  "doctype": "Property Setter", 
  "doctype_or_field": "DocField", 
  "field_name": "company", 
  "modified": "2017-08-04 13:13:48.544764", 
  "name": "Lead-company-hidden", 
  "property": "hidden", 
  "property_type": "Check", 
  "value": "1"
 }, 
 {
  "_assign": null, 
  "_comments": null, 
  "_liked_by": null, 
  "_user_tags": null, 
  "default_value": null, 
  "doc_type": "Lead", 
  "docstatus": 0, 
  "doctype": "Property Setter", 
  "doctype_or_field": "DocField", 
  "field_name": "unsubscribed", 
  "modified": "2017-08-04 13:13:48.573689", 
  "name": "Lead-unsubscribed-hidden", 
  "property": "hidden", 
  "property_type": "Check", 
  "value": "1"
 }, 
 {
  "_assign": null, 
  "_comments": null, 
  "_liked_by": null, 
  "_user_tags": null, 
  "default_value": null, 
  "doc_type": "Lead", 
  "docstatus": 0, 
  "doctype": "Property Setter", 
  "doctype_or_field": "DocField", 
  "field_name": "blog_subscriber", 
  "modified": "2017-08-04 13:13:48.578736", 
  "name": "Lead-blog_subscriber-hidden", 
  "property": "hidden", 
  "property_type": "Check", 
  "value": "1"
 }, 
 {
  "_assign": null, 
  "_comments": null, 
  "_liked_by": null, 
  "_user_tags": null, 
  "default_value": null, 
  "doc_type": "Company", 
  "docstatus": 0, 
  "doctype": "Property Setter", 
  "doctype_or_field": "DocType", 
  "field_name": null, 
  "modified": "2017-08-04 13:16:33.504301", 
  "name": "Company-read_only_onload", 
  "property": "read_only_onload", 
  "property_type": "Check", 
  "value": null
 }, 
 {
  "_assign": null, 
  "_comments": null, 
  "_liked_by": null, 
  "_user_tags": null, 
  "default_value": null, 
  "doc_type": "User", 
  "docstatus": 0, 
  "doctype": "Property Setter", 
  "doctype_or_field": "DocType", 
  "field_name": null, 
  "modified": "2017-08-04 19:35:56.867463", 
  "name": "User-read_only_onload", 
  "property": "read_only_onload", 
  "property_type": "Check", 
  "value": null
 }, 
 {
  "_assign": null, 
  "_comments": null, 
  "_liked_by": null, 
  "_user_tags": null, 
  "default_value": null, 
  "doc_type": "User", 
  "docstatus": 0, 
  "doctype": "Property Setter", 
  "doctype_or_field": "DocField", 
  "field_name": "full_name", 
  "modified": "2017-08-04 19:35:56.986104", 
  "name": "User-full_name-hidden", 
  "property": "hidden", 
  "property_type": "Check", 
  "value": "0"
 }
]