[
 {
  "docstatus": 0, 
  "doctype": "Workflow State", 
  "icon": "question-sign", 
  "modified": "2017-08-03 12:28:09.081531", 
  "name": "Pending", 
  "style": "", 
  "workflow_state_name": "Pending"
 }, 
 {
  "docstatus": 0, 
  "doctype": "Workflow State", 
  "icon": "ok-sign", 
  "modified": "2017-08-03 12:28:09.084474", 
  "name": "Approved", 
  "style": "Success", 
  "workflow_state_name": "Approved"
 }, 
 {
  "docstatus": 0, 
  "doctype": "Workflow State", 
  "icon": "remove", 
  "modified": "2017-08-03 12:28:09.086803", 
  "name": "Rejected", 
  "style": "Danger", 
  "workflow_state_name": "Rejected"
 }, 
 {
  "docstatus": 0, 
  "doctype": "Workflow State", 
  "icon": "", 
  "modified": "2017-08-03 13:15:05.880560", 
  "name": "Cancelled", 
  "style": "Danger", 
  "workflow_state_name": "Cancelled"
 }, 
 {
  "docstatus": 0, 
  "doctype": "Workflow State", 
  "icon": "", 
  "modified": "2017-08-03 22:00:28.322349", 
  "name": "Open", 
  "style": "", 
  "workflow_state_name": "Open"
 }
]